refV = 3949
0,  16.00,  14.25,  3915.44,  5.94 
1,  50.12,  48.62,  3912.38,  6.25 
2,  86.50,  88.62,  3913.38,  7.88 
3,  125.25,  125.06,  3912.62,  7.38 
4,  164.19,  164.88,  3912.62,  7.44 
5,  202.75,  204.88,  3911.25,  6.69 
6,  240.69,  243.38,  3912.62,  7.12 
7,  283.62,  282.81,  3911.31,  6.69 
8,  323.50,  322.81,  3912.75,  7.25 
9,  363.12,  362.56,  3914.12,  7.44 
10,  402.56,  403.56,  3913.56,  7.38 
11,  441.38,  445.88,  3914.62,  7.44 
12,  481.25,  485.50,  3913.88,  7.56 
13,  519.81,  522.44,  3915.62,  7.50 
14,  558.06,  560.38,  3913.94,  6.81 
15,  596.38,  598.69,  3915.38,  6.62 
16,  636.25,  638.62,  3913.44,  6.44 
17,  676.56,  678.44,  3914.19,  5.69 
18,  715.62,  717.94,  3914.56,  6.75 
19,  757.25,  759.81,  3913.81,  7.00 
20,  798.25,  799.62,  3913.69,  7.44 
21,  835.94,  837.88,  3913.38,  7.94 
22,  876.19,  878.25,  3915.88,  8.06 
23,  913.00,  915.81,  3914.94,  7.56 
24,  949.69,  953.00,  3914.56,  7.31 
25,  986.69,  991.69,  3916.25,  8.31 
26,  1027.62,  1031.81,  3914.06,  6.81 
27,  1071.44,  1072.88,  3912.31,  6.31 
28,  1112.44,  1114.44,  3909.69,  8.06 
29,  1152.00,  1155.06,  3912.81,  7.44 
30,  1193.00,  1195.81,  3921.56,  8.81 
31,  1231.88,  1235.12,  3918.75,  7.62 
32,  1270.88,  1273.88,  3918.12,  7.75 
33,  1307.12,  1311.06,  3919.50,  6.94 
34,  1344.81,  1348.00,  3918.56,  7.88 
35,  1382.50,  1386.38,  3919.69,  7.94 
36,  1426.81,  1426.81,  3918.50,  7.75 
37,  1466.88,  1466.88,  3917.38,  7.44 
38,  1506.12,  1508.56,  3916.06,  7.50 
39,  1547.00,  1551.38,  3916.75,  8.12 
40,  1587.38,  1590.38,  3919.75,  7.56 
41,  1627.06,  1629.94,  3920.06,  6.88 
42,  1665.19,  1668.00,  3919.31,  7.19 
43,  1701.81,  1704.12,  3921.75,  6.81 
44,  1739.12,  1744.12,  3921.06,  7.38 
45,  1778.00,  1781.19,  3922.06,  8.00 
46,  1815.50,  1818.00,  3920.00,  6.81 
47,  1856.69,  1862.12,  3921.69,  8.06 
48,  1899.81,  1903.88,  3919.62,  7.44 
49,  1939.94,  1943.94,  3920.75,  6.31 
50,  1982.75,  1986.50,  3921.75,  7.69 
51,  2021.44,  2023.94,  3921.44,  7.31 
52,  2059.44,  2061.25,  3921.38,  7.25 
53,  2097.75,  2098.62,  3921.31,  7.56 
54,  2134.38,  2140.69,  3922.50,  5.88 
55,  2172.31,  2177.06,  3923.25,  7.81 
56,  2211.31,  2215.88,  3923.75,  7.12 
57,  2253.25,  2257.62,  3921.94,  8.75 
58,  2293.69,  2297.81,  3922.38,  7.88 
59,  2335.50,  2338.56,  3923.88,  6.88 
60,  2375.25,  2378.75,  3923.56,  7.75 
61,  2413.06,  2416.81,  3924.44,  7.06 
62,  2451.25,  2455.88,  3926.69,  6.56 
63,  2488.12,  2493.38,  3927.00,  8.44 
64,  2526.94,  2529.44,  3926.12,  7.50 
65,  2567.88,  2569.00,  3925.56,  8.19 
66,  2606.31,  2608.88,  3924.00,  7.75 
67,  2647.25,  2649.75,  3924.81,  8.50 
68,  2689.62,  2690.88,  3924.50,  8.12 
69,  2728.94,  2732.06,  3923.38,  7.19 
70,  2769.44,  2773.00,  3922.56,  8.00 
71,  2808.25,  2812.81,  3927.12,  7.94 
72,  2847.62,  2850.69,  3931.25,  8.06 
73,  2883.25,  2887.75,  3931.31,  8.38 
74,  2923.75,  2925.81,  3929.56,  7.88 
75,  2963.38,  2965.44,  3929.31,  7.75 
76,  3000.69,  3004.56,  3930.69,  7.69 
77,  3041.19,  3044.75,  3928.25,  6.56 
78,  3083.31,  3086.69,  3928.06,  7.62 
79,  3124.00,  3127.50,  3927.50,  6.56 
80,  3163.62,  3168.06,  3927.25,  7.81 
81,  3202.25,  3206.69,  3928.25,  7.12 
82,  3243.00,  3247.06,  3930.12,  7.88 
83,  3280.50,  3282.69,  3928.88,  9.38 
84,  3318.44,  3322.44,  3930.31,  6.94 
85,  3356.44,  3360.62,  3930.25,  7.31 
86,  3395.81,  3401.38,  3931.75,  7.81 
87,  3435.25,  3438.31,  3929.56,  6.81 
88,  3476.56,  3479.31,  3931.62,  7.44 
89,  3516.12,  3518.69,  3930.19,  7.25 
90,  3557.94,  3562.88,  3927.88,  8.00 
91,  3595.12,  3603.44,  3927.25,  7.44 
92,  3634.94,  3641.94,  3931.12,  7.38 
93,  3673.56,  3680.56,  3934.06,  7.69 
94,  3714.19,  3719.06,  3932.94,  7.88 
95,  3754.25,  3758.88,  3933.44,  7.62 
96,  3791.88,  3797.94,  3931.50,  7.62 
97,  3832.62,  3837.31,  3933.38,  8.06 
98,  3871.69,  3876.62,  3931.88,  8.00 
99,  3910.81,  3915.62,  3932.25,  7.56 
100,  3927.31,  3928.12,  3932.69,  4.94 
